Waschmaschine,Wäsche,Schmutzig,Wasser
Frankenstein,Groß,Monster,Unheimlich
Füller,Tinte,Patrone,Schreiben
Fahrkarte,Eisenbahn,Schalter,Lösen
Gatenzwerg,Mütze,Rot,Klein
Park,Bäume,Spazieren,Natur
Olympiade,Athleten,Goldmedaille,Länder
Huhn,Eier,Vogel,Krähen
Tarzan,Jane,Dschungel,Affe
Fledermaus,Mann,Höhle,Flattern
Fahrschule,Auto,Fahren,Motorrad
Schreibmaschine,Tasten,Farbband,Tippen
Kehlkopf,Schlucken,Hals,Sprechen
Lampe,Licht,Ein,Schalter
Suppe,Heiß,Flüssig,Löffel
Mini-Gold,Schläger,Ball,Klein
Lineal,Gerade,Zahlen,Messen
Tapete,Wand,Muster,Rolle
Stuhl,Sitzen,Holz,Dach
Zeugnis,Noten,Versetzung,Klasse
Hemd,Knöpfe,Kragen,Bekleidungsstück
Aschenputtel,Schwester,Schuh,Prinz
Herz,Rot,Liebe,Schlag
Hupe,Laut,Erschrecken,Warnen
Herd,Backen,Kochen,Küche
Ballon,Helium,Blasen,Luft
Plastik,Kunststoff,Bunt,Tüte
Teppich,Boden,Wolle,Saugen
Flasche,Glas,Flüssigkeit,Gießen
Karussell,Jahrmarkt,Fahren,Spaß
Bleistift,Blei,Schreiben,Radiergummi
Schneemann,Kalt,Winter,Weiß
Gabel,Besteck,Essen,Aufspießen
Spukhaus,Unheimlich,Geister,Buh
Pinocchio,Nase,Lügen,Wachsen
Knopf,Klein,Kleidung,Hemd
Atlas,Landkarte,Stadtplan,Maßstab
Niesen,Nase,Kalt,Gesundheit
Schildkröte,Tier,Panzer,Langsam
Drachen,Fliegen,Schnur,Wind
Ei,Braun,Schale,Huhn
Zirkel,Kreis,Zeichnen,Geometrie
Schloß,Graben,König,Turm
Klasse,Schule,Kinder,Lehrer
Helm,Kopf,Tragen,Motorrad,
Klatschen,Hände,Lärm,Applaus
Schlüssel,Schloß,Metall,Tür
Tagebuch,Ereignisse,Kalender,Aufschreiben
Tasse,Henkel,Trinken,Kaffee
Badezimmer,Dusche,Waschen,Becken
Sicherung,Elektrizität,Abschalten,Durchbrennen
Wal,Groß,Moby Dick, Killer
Karate,Treten,Kampfsport,Gürtel
Radiergummi,Bleistift,Fehler,Zeichnung
Kugelschreiber,Mine,Drücken,Schreiben
Kanu,Boot,Paddeln,Indianer
Shampoo,Haare,Waschen,Duschen
Schlittschuhe,Winter,Eis,Laufen
Fahne,Hissen,Land,Streifen
Fluß,Wasser,Strömung,Bett
Kutsche,Rad,Pferde,Ziehen
Hausaufgabe,Machen,Schule,Nachmittags
Marine,Schiffe,Meer,Seemann
Laster,Kipper,Anhänger,Transport
Fäustling,Schnee,Handschuhe,Hände
Kleider,Tragen,Kaufen,Geschäft
Teddy Bär,Spielzeug,Ausgestopft,Stofftier
Brieftasche,Ausweis,Geld,Schecks
Bank,Geld,Konto,Sparen
Birne,Frucht,Lampe,Obst
Regenschirm,Regen,Halten,Trocken
UFO,Untertasse,Außerirdisch,Weltraum
Mittagessen,Essen,Mittags,Mahlzeit
Giraffe,Tier,Hals,Groß
Grippe,Husten,Schnupfen,Fieber
Leuchtturm,Hafen,Schiffe,Lichtstrahl
Wasserhahn,Heiß,Kalt,Drehen
Katze,Miau,Schnurren,Fell
Insel,Einsam,Meer,Umgeben
Garten,Pflanzen,Wachsen,Blumen
Treppe,Geländer,Steigen
Drache,Monster,Feuer,Fabeltier
Rotkäppchen,Korb,Wolf,Großmutter
Hammer,Nagel,Schwingen,Schlagen
Zopf,Haare,Flechten,Mädchen
Dumm,Dämlich,Schlau,Idiot
Tisch,Stühle,Beine,Essen
Schwein,Borsten,Speck,Schlamm
Silvester,Feuerwerk,Anfang,Sekt
Telefon,Sprechen,Klingeln,Anrufen
Rose,Rot,Garten,Blume
Leim,Holz,Kleben,Weiß
Fernbedienung,Programm,Umschalten,Tasten
Wäsche,Waschen,Kleider,Schmutzig
Dracula,Transsylvanien,Sarg,Blut
Sommer,Warm,Jahreszeit,Ferien
Adler,Geldstück,Vogel,Augen
Clown,Lustig,Zirkus,Perrücke
Parlament,Politiker,Reden,Bundeshaus
Videocassette,Film,Fernsehen,Abspielen
Schrank,Kleider,Holz,Türen
Wecker,Uhr,Klingeln,Aufwecken
Toaster,Brot,Heiß,Verbrennen
Glas,Klar,Fenster,Trinken
Wolke,Himmel,Regen,Grau
Aktentasche,Leder,Dokumente,Tragen
Werwolf,Mond,Fell,Heulen
Pflaster,Wunde,Bluten,Verbinden
Knoten,Schnur,Binden,Schleife
Hut,Tragen,Kopf,Kappe
Reisepass,Ausweis,Ferien,Foto
Haar,Kämmen,Frisur,Bürsten
Riegel,Abschließen,Tor,Vorschieben
Fenster,Glas,Durchsichtig,Scheibe
Münze,Silber,Kupfer,Pfennig
Eishockey,Schlittschuhe,Eis,Mannschaft
Jo-Jo,Spielzeug,Schnur,Hoch
Pirat,Böse,Schwert,Augenklappe
Luftmatratze,Wasser,Sommer,Strand
Supermarkt,Geschäft,Regale,Einkaufen
Kuß,Lippen,Neger,Schmatzen
Geschirr,Schmutzig,Spülen,Porzellan
Gewitter,Donner,Blitz,Grollen
Valentins-Tag,Paar,Februar,Liebe
Tee,Schwarz,Brühen,Heiß
Tätowierung,Arm,Farbe,Kunst
Garage,Auto,Tor,Parken
Staubsauger,Teppeich,Sauber,Düse
Schultafel,Kreide,Schwarz,Schiefer
Buchbesprechung,Lesen,Autor,Schreiben
Erdbeben,Wackeln,Zerstörung,Richter
Spiegel,Glas,Ebenbild,Sehen
Sport,Training,Spielen,Laufen
Regenbogen,Stehen,Farben,Himmel
Bahnhof,Zug,Gleise,Ankunft
Bibliothek,Bücher,Studieren,Still
Winter,Kalt,Dezember,Schnee
Brille,Augen,Tragen,Sehen
Ente,Gelb,Quaken,Paddeln
Note,Musik,Zeugnis,Geben
Farbe,Pinsel,Streichen,Palette
Glocke,Kirche,Klingen,Läuten
Gemälde,Bild,Museum,Kunst
Post,Austragen,Postbote,Brief
Kohle,Schwarz,Heizen,Feuer
Stadt,Häuster,Straßen,Menschen
Käse,Gelb,Schmelzen,Weich
Schraubenzieher,Werkzeug,Drehen,Griff
Taschenmesser,Klinge,Aufklappen,Schneiden
Rock,Kleidungsstück,Tragen,Schotte
Schlafen,Müde,Traum,Bett
Vulkan,Ausbruch,Lava,Krater
Delphin,Flipper,Schlau,Meer
Schublade,Ziehen,Aufbewahren,Griff
Keks,Süß,Schokolade,Butter
Haltestelle,Bus,Straßenbahn,Warten
Orangensaft,Pressen,Vitamin C, Trinken
Ski,Schnee,Berge,Lift
Zebra,Schwarz,Weiß,Streifen
Getränkedose,Aluminium,Cola,Rund
Arzt,Krank,Medizin,Untersuchen
Schornsteinfeger,Kamin,Schwarz,Leiter
Astronaut,Weltraum,Mond,Raumkapsel
Limonade,Getränk,Kohlensäure,Erfrischend
Segelboot,See,Regatta,Kiel
Zahnbürste,Sauber,Zähne,Karies
Kamera,Film,Bilder,Fotos
Dreirad,Pedale,Fahren,Klein
Scheune,Bauernhof,Heu,Pferde
Zoo,Tiere,Käfige,Gehen
Autofähre,Schiff,Wasser,Übersetzen
Fernsehen,Zuschauen,Einschalten,Programm
Pommes Frites,Hamburger,Ketchup,Kartoffeln
Honig,Biene,Wabe,Süß
Löffel,Besteck,Essen,Suppe
Cowboy,Pferde,Rinder,Hut
Liegestuhl,Holz,Klappen,Ausruhen
Eule,Nacht,Uhu,Schlau
Eltern,Mutter,Vater,Kinder
Bonn,Regierungssitz,Präsident,Bundestag
Rapunzel,Turm,Haare,Klettern
Geister,Gespenst,Spuken,Unheimlich
Traum,Schlafen,Tag,Bilder
Regen,Sturm,Wolken,Naß
Nordpol,Eskimos,Kalt,Magnetisch
Kamm,Haare,Bürsten,Knoten
Papier,Blatt,Schreiben,Dünn
Handtuch,Trocken,Naß,Frottee
Kaugummi,Kauen,Rosa,Blasen
Umwelt,Schützen,Sauber,Recyceln
Spinne,Acht,Beine,Insekt
Ohr,Hören,Gipfel,Zwei
Schaukel,Spielplatz,Stuhl,Pferd
Taschentuch,Baumwolle,Papier,Nase
Steckdose,Elektrizität,Einstöpseln,Anschalten
Fußballspiel,Füße,Ball,Spiel
Wasserrutsche,Glitischig,Spritzen,Schnell
Gürtel,Hose,Hüfte,Schnalle
Schnecke,Langsam,Haus,Klein
Versteckspiel,Spiel,ich komme,Bäume
Pinsel,Farbe,Anstreichen,Borsten
Kreide,Schreiben,Weiß,Tafel
Wachsmalstift,Farbe,Zeichnen,Stift
Süßigkeiten,Süß,Schokolade,Essen
Wasserfarbe,Aquarell,Pinsel,Malen
Radio,UKW,Musik,Hören
Alarm,Glocke,Klingeln,Notfall
Socken,Füße,Schuhe,Tragen
Taschengeld,Geld,Ausgeben,Sparen
Null,Zahl,Nichts,Keiner
Pyjama,Schlafen,Bett,Nachts
Hubschrauber,Fliegen,Schweben,Rotor
Frühstück,Morgen,Essen,Mahlzeit
Gürtel,Hüfte,Schnalle,Leder
Muschel,Meer,Strand,Sand
Skateboard,Fahren,Brett,Balance
Musik,Hören,Spielen,Instrument
Dusche,Sprühen,Wasser,Naß
Teleskop,Sehen,Sterne,Observatorium
Popcorn,Gelb,Mais,Süß
Nase,Riechen,Gesicht,Rümpfen
Apfel,Rot,Frucht,Essen
Finger,Hand,Zeigen,Anfassen
Spinat,Grün,Popeye,Gemüse
Bad,Wasser,Wanna,Spritzen
Wald,Bäume,Tiere,Holz
Krapfen,Rund,Gefüllt,Süß
Zuckerstange,Süß,Rund,Bunt
Fisch,Meer,Schwimmen,Wasser
Computer,Bildschirm,Tastatur,Programm
Toilette,Spülen,Papier,WC
Auto,Fahren,Motor,Lenkrad
Tankstelle,Autos,Öl,Benzin
Schultasche,Tragen,Hefte,Sachen
Polizist,Pistole,Uniform,Streifenwagen
Bundespräsident,Villa Hammerschmidt,Regieren,Bonn
Telefon,Hörer,Wählschreibe,Anruf
Pony,Pferd,Klein,Reiten
Meerjungfrau,Frau,Fisch,Halb
Pudding,Nachtisch,Schokolade,Vanille
Kuh,Bauernhof,Milch,Leder
Elefant,Rüssel,Dickhäuter,Afrika
Motorrad,Zweirad,Fahren,Helm
Hamburger,Fleisch,Ketchup,Brötchen
Babysitter,Kind,Eltern,Abend
Lachen,Lustig,Witz,Komisch
Eichhörnchen,Nüsse,Baum,buschiger Schwanz
Straße,Allee,Weg,Kreuzung
Stiefel,Schuhe,Hoch,Gummi
Tennis,Aufschlag,Schläger,Netz
Badeanzug,Wasser,Schwimmbad,Sommer
Leiter,Klettern,Hoch,Sprossen
Nikolauf,Weihnachten,Knecht Rupprecht,Stiefel
Orangensaft,Pressen,Trinken,Frucht
Zeichentrickfilm,Fernsehen,Lustig,Ansehen
Schiedsrichter,Unparteiisch,Fußball,Sport
Australien,Känguruh,Kontinent,Koala
Senf,Gelb,Scharf,Mostrich
Mond,Himmel,Weltraum,Nacht
Mathematik,Algebra,Geometrie,Zahlen
Kartoffelchips,Knusprig,Tüte,Gesalzen
Zahn,Beißen,Zahnarzt,Mund
Baum,Blätter,Äste,Grün
Haarschnitt,Friseur,Schere,Frisur
Pferdeschwanz,Mädchen,Haare,Ziehen
Spielplatz,Schaukel,Rutschbahn,Sand
Gitarre,Musik,Saiten,Spielen
Frosch,Grün,Teich,König
Kartoffel,Püree,Schale,Braun
Fußball,Schwarz,Weis,Spiel
Hamster,Nagetier,Haustier,Käfig
Eiscreme,Geschmack,Süß,Kugel
Zitrone,Sauer,Frucht,Gelb
Bratwurst,Ketchup,Gebraten,Senf
Armee,Soldat,Militär,Bewaffnet
Biber,Damm,Zähne,Pelz
Flughafen,Verreisen,Flugzeuge,Fliegen
Unterwäsche,Hemd,Hose,Boxer Shorts
Hai,Flosse,Fisch,Meer
Brot,Backen,Laib,Kruste
Wigwam,Indianer,Zelt,Wohnen
König,Schloß,Herrscher,Frosch
Frikadellen,Rindfleisch,Rund,Senf
Dinosaurier,Prähistorisch,Ausgestorben,Tyranno-saurus Rex
Corn Flakes,Frühstück,Milch,Knusprig
Rosine,Traube,Korinthen,Getrocknet
Indianer,Wigwam,Pfeile,Ureinwohner
Hause,Ostern,Ohren,Tier
Berg,Klettern,Hoch,Hügel
Pfannkuchen,Nachspeise,Apfel,Rund
Goldfisch,Glas,Klein,Haustier
Prüfung,Abitur,Schule,Bestehen
Marmelade,Erdbeeren,Süß,Brot
Biene,Summen,Stechen,Honig
Boot,Segel,Wasser,Meer
Stadion,Zuschauer,Spiel,Sport
Hunde,Lassie,Haustier,Bellen
Schwimmbad,Wasser,Becken,Schwimmen
U-Boot,Unterwasser,Periskop,Tauchen
Make-up,Auftragen,Schminke,Gesicht
Badewanne,Wasser,Spritzen,Sauber
Geld,Schein,Ausgeben,Münze
Schlange,Reptil,Giftzähne,Kriechen
Alphabet,Buchstaben,Rechtschreibung,ABC
Flugzeug,Fliegen,Verreisen,Jet
Karotte,Orange,Bugs Bunny,Gemüse
Minirock,Kurz,Beine,Leder
Haus,Schlafzimmer,Wohnen,Zuhause
Ohrringe,Gold,Durchstechen,Ohrläppchen
Modelleisenbahn,Gleise,Lokomotive,Wagen
Kürbis,Rund,Gelb,Frucht
Schuh,Fuß,Leder,Sohle
Küche,Koch,Essen,Kühlschrank
Torte,Backen,Apfel,Kuchen
Kino,Filme,Sehen,Spannung
Erde,Globus,Welt,Planet
Bär,Braun,Winterschlaf,Höhle
Kakao,Schokolade,Milch,Heiß
Sonnenbrille,Gesicht,Augen,Tragen
Schule,Bücher,Prüfungen,Lehrer
Wüste,Kaktus,Sand,Heiß
Liebe,Hass,Mögen,Herz
Marshmallow,Weiß,Weich,Rose
Rakete,Abschussrampe,Astronauten,Countdown
Ketchup,Rot,Tomaten,Pommes Frites
Lolli,Lutschen,Farben,Stiel
Maus,Käse,Micky,Computer
Samson,Sesamstraße,Zottelig,Groß
Zirkus,Clowns,Tiere,Trapez,
Doppelbett,Schlafen,Zwei,Nebeneinander
Krawatte,Knoten,Hemd,Hals
Salat,Tomaten,Grün,Soße
Schleife,Haar,Schuhe,Binden
Buch,Lesen,Seiten,Taschen
Aquarium,Fisch,Tank,Wasser
Zeppelin,Ballon,Gas,Fliegen
Baby,Säugling,Kind,Klein
Schnee,Eis,Weiß,Kalt
Papagei,Sprechen,Vogel,Käfig
Löwe,Mähne,Dschungel,König
T-Shirt,Ärmel,Baumwolle,Tragen
Leichtathletik,Hochsprung,Hundert-Meter-Lauf,Kugelstoßen
Dachboden,Haus,Oben,Raum
Achterbahn,Fahrt,Steil,Ängstlich
Kermit der Frosch,Muppets,Grün,Miß Piggy
Höhle,Versteck,Dunkel,Fledermäuse
Fahrrad,Räder,Sattel,Pedale
Jupiter,Groß,Planet,Sonnensystem
Cheeseburger,Fleisch,Brötchen,Käse
Obst,Frucht,Baum,Essen
Parfüm,Duft,Süß,Lavendel
Platz,Fläche,Offen,Spiel
Sweatshirt,Dick,Ärmel,Lang
Planeten,Himmelskörper,Weltraum,Entfernt
Tomate,Rot,Reif,Gemüse
Ostern,Eier,Hase,Süßigkeiten
Ballet,Tanzen,Schuhe,Prima-ballerina
Strandkorb,Strand,Sommer,Sonnen
Sparschwein,Geld,Sparen,Füllen
Schatz,Vergraben,Insel,Truhe,
Engel,Himmel,Heiligenschein,Flügel
Schuhbänder,Binden,Knoten,Füße
Kichern,Lachen,Albern,Komisch
Garage,Auto,Abstellen,Tor
Zuckerwatte,Rosa,Zucker,Klebrig
Känguruh,Beutel,Hüpfen,Australien
Tischtennis,Ball,Schläger,Platte
Datum,Kalender,Tagebuch,Heute
Bett,Schlafen,Nachts,Decke
Rasen,Gras,Grün,Mähen
Pizza,Knusprig,Belag,Käse
Krake,Arme,Meer,Acht
Satellit,Umkreisen,Erde,Weltraum
Stier,Hörner,Kampf,Kuh
Camping,Zeit,Verreisen,Draußen
Sonnenbrand,Rot,Haut,Schmerzhaft
Basketball,Groß,Spieler,Korb
Toast,Heiß,Brot,Butter
Barbie,Puppe,Ken,Spielzeug
Spaghetti,Nudeln,Faden,Hackfleisch
Frisbee,Scheibe,Werfen,Spielen
Ballkleid,Lang,Hübsch,Elegant
Kaffee,Schwarz,Milch,Heiß
Eier,Dotter,Huhn,Schlagen
Schokolade,Süß,Braun,Milch
Rindfleisch,Steak,Hamburger,Schnitzel
Geburtstagsparty,Spaß,Kuchen,Geschenke
Verkleidung,Maske,Karneval,Kostüm
Schmuck,Teuer,Diamanten,Gold
Ernußcreme (ja. so steht das auf der Originalkarte. und nein. das in der Klammer muss nicht mit erraten werden),Brot,Marmelade,Glas
Pferd,Reiten,Hufeisen,Sattel
Joggen,Laufen,Training,Fit
Kuchen,Sahne,Backen,Geburtstag
Milchstraße,Weltall,Sterne,Sonnensystem
Jucken,Haut,Kratzen,Reiben
Feuerwehrmann,Leiter,Schlauch,Wasser
Zauberer,Magie,Tricks,Hand
Sonne,Hell,Strahlen,Himmel
Mars,Rot,Marsmensch,Planet
Affe,Dschungel,Banane,Tarzan
Uhr,Zeit,Zahlen,Stunde
Ameise,Klein,Haufen,Wimmeln
Iglu,Schnee,Eis,Eskimo
Ball,Rund,Werfen,Spiel
Klavier,Spielen,Tasten,Musik
Steptanz,Schuhe,Klick,Ton
Einhorn,Pferd,Horn,Fabel
Sonnensystem,Planeten,Erde,Sonne
Milch,Weiß,Kühe,Getränke
Tiger,Katze,Raubtier,Dschungel
Magen,Bauch,Essen,Dick
Komet,Stern,Himmel,Weltraum
Armband,Handgelenk,Um,Gold
Jacke,Mantel,Überziehen,Tragen
Jackpot,Gewinn,Lotto,Auslosung
Pechvogel,Unglück,schwarz,Aberglaube
Ferienjob,Schüler,Arbeit,Freizeit
Eiweiß,Protein,Dotter,gelb
Haarspange,Zopf,Frisur,Mädchen
Reißverschluss,Jacke,Hosenstall,Klettverschluss
Leuchtturm,Schiff,Wegweiser,hell
Waffenstillstand,Krieg,Frieden,Streit
Obstsalat,Frucht,erfrischend,Nachtisch
Seilspringen,hüpfen,Leine,Sport
Lebkuchen,Weihnacht,Haus,Gebäck
Bügeleisen,Wäsche,glatt,heiß
Leihwagen,Auto,Leasing,Unfall
Ansichtskarte,Souvenir,Post,Urlaub
T-Shirt,Oberteil,Ärmel,Sommer
Gartenhaus,Schuppen,Geräte,außen
Eistee,süß,kalt,Zitrone
Schlüsselloch,abschließen,treffen,durchschauen
Nutztier,Landwirt,Arbeit,Ertrag
Kreisverkehr,fahren,Straße,Ring
Giftflasche,töten,Mord,Behälter
Hellseher,Medium,Voraussage,Ouija
Sanduhr,Korn,Zeit,umdrehen
Scheibenwischer,Regen,Auto,Gummi
Umweltschutz,Natur,Klimawandel,Müll
Handball,Sport,werfen,Tor
Diskette,speichern,alt,Magnet
Musterschüler,Note,Einser,Vorbild
Duschgel,waschen,Duft,sauber
Hotdog,Wurst,Brötchen,Ketchup
Gießkanne,Garten,Pflanzen,Wasser
Treppenhaus,Stockwerk,Aufzug,gehen
Adressbuch,Kontakte,Liste,Personen
Raumschiff,Weltall,Astronaut,schweben
Lesezeichen,Buch,Seite,Stelle
Bindestrich,Trennung,Silbe,Wort
Apfelbaum,Obst,Saft,Most
Frisbee,werfen,fangen,Wiese
Vogelkäfig,Haustier,Gitter,Metall
Kettensäge,Holz,Wald,Förster
Haarausfall,Glatze,Alpecin,Stress
Bohrmaschine,Loch,Wand,drehen
Strohhalm,Plastik,trinken,ziehen
Fingerabdruck,identifizieren,einzigartig,Spur
Messerrücken,Schneide,stumpf,scharf
Augenzeuge,Verbrechen,gesehen,aussagen
Luftpumpe,platt,Reifen,Tankstelle
Osterhase,Eier,verstecken,Pfingsten
Sackgasse,wenden,fahren,Schild
Comeback,Rückstand,aufholen,gewinnen
Angstschweiß,Furcht,nass,Stirn
Grippe,Fieber,krank,Bett
Gefrierpunkt,Eis,Wasser,Temperatur
Tauziehen,Kraft,Seil,Mannschaft
Schach,Spiel,Figuren,König
Juckreiz,kratzen,Allergie,rot
Sparschwein,Geld,Münzen,Scheine
Eichhörnchen,Baum,Schwanz,klettern
Ernstfall,Übung,trainieren,Tod
Datenschutz,Facebook,Werbung,DSGVO
Countdown,zählen,Startschuss,abwärts
Magier,zaubern,Trick,Illusion
Nudelholz,plätten,flach,backen
Altglascontainer,Recycling,Flaschen,klirren
Mauspad,Unterlage,Computer,Schreibtisch
Froschkönig,Märchen,Kuss,Amphibie
Morsezeichen,lang,kurz,Signal
Alkohol,betrunken,Bier,Prozent
Ananas,Obst,Spongebob,Cocktail
Nasenring,Piercing,rund,Schmuckstück
Vogelnest,brüten,Eier,Nachwuchs
Wahrzeichen,Sehenswürdigkeit,bekannt,Reise
Toastbrot,Sandwich,weich,Scheibe
